@startuml

hide methods
hide circle

class "Role"
hide "Role" attributes
class "RoleA"
hide "RoleA" attributes
class "RoleB"
hide "RoleB" attributes
class "RoleC"
hide "RoleC" attributes
class "RoleD"
hide "RoleD" attributes

class Nurse {
    id: String
    skills: Set[Role]
}

class Requirement {
    r: Role
    quantity: Int
}

class Period {
    id: String
    lr: List[Requirement]
}

class Shift {
    n: Nurse
    p: Period
    r: Requirement
}

class Agenda {
    ln: List[Nurse]
    lp: List[Period]
    {method} schedule : Option[List[Shift]]
}
show Agenda methods

Role <-- RoleA
Role <-- RoleB
Role <-- RoleC
Role <-- RoleD
Period o-- "1..*" Requirement
Requirement o-- "1" Role
Nurse o-- "1..*" Role
Agenda o-- "1..*" Nurse
Agenda o-- "1..*" Period
Shift o-up- "1" Nurse
Shift o-up- "1" Period
Shift o-left- "1" Requirement

@enduml